3150000335;REMOVED
342311360X;REMOVED
0743486226;0671027360
0571197639;REMOVED
3596214629;REMOVED
0140374248;0375814248
006101351X;0060977477
044021145X;0385416342
014023828X;0670856045
039914739X;0425182908
8845229041;REMOVED
0156027321;0151008116
0385490992;0440225701
0345251733;REMOVED
0590021117;REMOVED
0345413377;0375823352
0345413369;0375823468
0679893105;037582345X
2070362388;REMOVED
2266033689;REMOVED
2070334368;REMOVED
0446525502;0446610399
0679450440;0345404793
0718144538;REMOVED
0349101779;REMOVED
1860198597;REMOVED
038529929X;0440224675
0345418778;0517577402
0451205421;0451181379
0345391802;0671461494
0753804700;REMOVED
0385493800;0440234743
0399143165;0425166619
0553211412;0553212583
3473540420;REMOVED
1566193966;REMOVED
038001503X;0060929790
3423009152;REMOVED
0679457313;0060977493
0140620338;REMOVED
0571200389;REMOVED
000649840X;REMOVED
0099771519;REMOVED
067168390X;0671623249
0805063889;0805063897
0446606812;0446523569
0552996009;REMOVED
0590542443;0375823352
0590112899;0375823468
0855030224;REMOVED
080410753X;0399135782
1566197155;REMOVED
0385508417;0385505833
0449006344;0609605925
0452284481;0452277337
2070363104;REMOVED
2266000489;REMOVED
0307177092;REMOVED
0743412273;0451162072
0440226430;0385324057
0375707972;0679442790
0618126988;0345325818
0446310492;0446310786
0316969680;0446612545
3518368540;REMOVED
0450542912;REMOVED
0440418569;0375823352
0440224764;0385472951
0440236673;0385497466
0684821192;REMOVED
0440235162;0385334036
0676974562;0965404560
0062502182;0062502174
0312168144;0312965338
2253004243;REMOVED
0140272941;0140016821
0006550789;REMOVED
0385492081;0385494785
0670848549;REMOVED
067976402X;0151001006
0743456866;0743230051
0765342294;0312853238
0330294377;REMOVED
0743202961;0743439740
0786866462;0786886463
0316569321;0316182540
0451117670;REMOVED
0515111279;0399137807
0812505166;0553212583
8807810360;REMOVED
0553135457;REMOVED
0330312367;REMOVED
2253047422;REMOVED
0345342968;3257208626
0812550706;0312853238
0553580302;0553110721
0099244926;0440225701
0340612843;REMOVED
0413588106;REMOVED
0060922532;0060168013
0435240765;REMOVED
0316779490;0316777730
0753811464;REMOVED
0425194493;0399149759
0842361715;061312975X
0345384350;0553582909
0425175405;0399145087
1855853906;REMOVED
0345452534;0345413903
0340792655;0340767936
0446516538;0446601640
0679446486;0345402871
076071150X;REMOVED
0688149790;0380728729
0385424736;044022165X
0140390839;0812504208
0739307312;0385504209
3423105518;REMOVED
0553130285;REMOVED
0440212723;038531258X
0006476333;REMOVED
0312263120;0312995423
0312291639;0312278586
0553348981;0553268449
0440241537;0385508042
0425181103;0425101452
0375706062;0375406328
0425092178;0425181111
0812533550;0312853238
9721013412;REMOVED
0399138749;0425144429
0571069134;REMOVED
0061099694;006017935X
1559029838;REMOVED
0446610100;0446527165
1857027795;REMOVED
0380002930;038039586X
888183152X;REMOVED
052594527X;0452282152
0399147284;0425182878
039914210X;0515122408
0442043244;REMOVED
0385720106;0385500769
0571142745;REMOVED
0684823780;0805420460
0345396537;0345396529
0394588169;0345370775
0812513711;0312852487
0425098680;080410882X
0553245694;0553348973
0688127169;0385315287
0440784743;044048474X
0061097314;0060915544
0140051317;REMOVED
0140124373;REMOVED
0450411435;REMOVED
0752848011;REMOVED
0345283945;REMOVED
0684810387;0671867113
0884042642;0884040801
0553109839;0553580388
0316639842;REMOVED
0349100373;REMOVED
044661064X;0446527289
0312872402;0765347539
0312872399;0765345048
0571154913;REMOVED
0760704767;REMOVED
0671468464;0671722727
034541103X;0394578791
0446612790;0316693200
0590455761;REMOVED
0446365505;0671870432
0804111898;0679401032
0449212858;044920474X
067150987X;0156001942
0553142046;REMOVED
1857022424;REMOVED
068484477X;0684844729
0385421982;0440214041
0733801862;REMOVED
0451185560;0451209435
0440213525;038542471X
0060283122;0064407667
0446613436;0446527793
156389470X;0060934719
0141309814;0441328091
1856273296;REMOVED
0671864173;0671537458
0684865742;0743200985
074343627X;0743211383
0060505265;0060505273
0399143947;0425169863
0375405429;0375705228
0316666009;0446610038
0330284142;REMOVED
0446611867;0446527785
0061042005;0749318368
0446679593;0316969443
0679417796;0553572997
0316346624;0316316962
034541389X;0679459626
0312951426;0330327917
0446523321;0446607711
0380804557;0060934719
0099245027;0440234743
0861782356;REMOVED
8432021903;REMOVED
0812575717;0765342405
0679454446;0446604658
067088300X;0140293248
0688009387;0441068804
0140293469;1573225517
0060801115;REMOVED
0553149660;REMOVED
0571135390;REMOVED
1857238982;REMOVED
0679454454;0446604666
342310001X;REMOVED
0140250840;REMOVED
1573226882;0140293442
1573228214;1573225517
0316780812;0316089699
0743407059;0743407067
0679437452;0515119784
0345413350;037582345X
0571197272;REMOVED
0553579835;0553106678
088184389X;2290331406
0345314255;0345290240
0446693790;0446532231
0451522303;0451526341
0525941673;0452279690
0140009930;REMOVED
014027944X;REMOVED
0330020706;REMOVED
1856053318;REMOVED
0752521454;REMOVED
0446604275;0679448594
034531798X;0345308999
0312975228;0805060200
0099521016;REMOVED
0330261878;REMOVED
3442435366;REMOVED
3499134411;REMOVED
055327886X;0553052845
014028009X;0330332775
0340581239;REMOVED
034547063X;0375504397
8804379901;REMOVED
0141001828;0670891576
8806130684;REMOVED
8817131628;REMOVED
8878242357;REMOVED
0060929871;0060809833
8817106259;REMOVED
0679732411;0394557433
884590184X;REMOVED
0767914767;038550926X
055321148X;156619301X
088029261X;REMOVED
2277219517;REMOVED
0340767278;REMOVED
042516098X;0399142282
0446613266;0316693006
0099759713;REMOVED
0671041789;0671032658
0439064864;0439064872
0553292056;0345273303
3423071001;REMOVED
0425170055;0399144137
1573229083;1573221775
0060935464;0446310786
1882723007;0553565915
1566199646;REMOVED
0553236628;0553274384
0330360434;REMOVED
0099993805;REMOVED
0451184963;0670855030
0440220602;0385424728
0380016699;0308102282
2020239302;REMOVED
0425170349;0399144137
8807701189;REMOVED
2070380742;REMOVED
0553277243;0385240406
2253049069;REMOVED
2070366081;REMOVED
0670884839;0142000485
0525244581;0140067477
0515132187;0399147128
8831760122;REMOVED
8845224279;REMOVED
8807809907;REMOVED
8806116398;REMOVED
0330253565;REMOVED
042516876X;0515119784
0670813648;0451153553
0451524667;0451526341
0316693235;0446611212
0804114986;0399146431
0743410505;0671028367
0425178102;0425184129
2070394867;0671880187
0425152367;0425171264
0553106643;0553579754
0449223795;0345454073
0156007479;0151006725
0451206525;0399147357
0590444646;REMOVED
0399144706;0515127833
0330306839;REMOVED
0312980159;0312252617
0312979886;0312261594
037328019X;REMOVED
2070381161;REMOVED
0345318587;0345272579
0330328743;REMOVED
8807811464;REMOVED
B00009ANY9;0446530522
0439136369;0439136350
0330262130;REMOVED
0380807343;0380977788
0330301497;REMOVED
0330375253;0330332775
0385503822;0440241073
0752860178;REMOVED
0399145923;0515130389
8471669226;8495407809
3499433265;REMOVED
3596215226;REMOVED
0684841215;034524575X
0140026177;REMOVED
042513699X;0425161285
0679407715;0804108749
0156028352;0671617028
0886771625;0886773741
0061032042;0066211085
0345387651;0553258001
0553212036;0874067391
0679444815;0345417623
0394589424;0345380371
037540290X;0345424719
002542730x;002542730X
0743467523;0743211383
014012389X;0394561619
0722150954;REMOVED
0441090729;0671318314
006464801X;REMOVED
0446361739;0445205512
0141007338;1573227331
0425129586;0671704664
0805067140;0312421001
0345335058;0140065172
0671742515;0671694049
0553213105;055321215X
0446675369;0446600253
0860074382;REMOVED
0330267388;REMOVED
0156012197;0156528207
3423703040;REMOVED
0553107755;055337933X
0330352091;REMOVED
0804115613;0070212570
034543479X;0345424719
0590475363;REMOVED
0394423291;0452264790
0439139600;0439139597
0441007554;0399145796
093914994X;0553568051
0552143774;REMOVED
1568654782;REMOVED
8807810786;REMOVED
8807811987;REMOVED
8807812061;REMOVED
0671011375;0684841185
0399146253;0425180638
0553102133;0553574965
0553099590;0553564528
0340766638;REMOVED
0860680649;REMOVED
0425083837;0425120279
0425183750;0399147020
0671441515;0671722816
045120994X;0451209435
0671718436;REMOVED
0684163268;0684801221
0316781142;0316781266
0609801279;0517706814
0060675357;0062508156
0140248943;REMOVED
0670887315;0140296409
3442448387;REMOVED
0330346261;REMOVED
0385334206;0440131480
0345413997;0345330129
8501012076;REMOVED
0671027115;0671027107
0393046974;0375727345
0787123730;0786866276
0140285679;1573227331
1402511787;0965404560
0752801716;REMOVED
0671037293;REMOVED
0671037285;REMOVED
0140060898;0380619458
0451082028;REMOVED
0891073906;061312975X
0375422412;0385721420
037570924X;0767902912
0747541604;0151003084
1857988884;038080350X
0385722109;0241141095
0947782753;REMOVED
0679433015;0345389417
0394587863;0345384466
014029628X;1565115430
0441090435;042509586X
0316095133;REMOVED
5553531144;REMOVED
0451525892;0451187903
0684835959;0671004549
0452279607;0451210840
0670272663;0451124340
0333568745;0330331973
0743436210;0671024248
0399138250;0425143325
0804105820;0394580567
0141000198;0330332775
0446519804;0446608653
0671727796;0671617028
8425335272;8439708653
0451161351;0670451932
0140060324;REMOVED
0091841844;REMOVED
2070725804;2070388905
0553581872;0553801813
0425172546;039914465X
0743235150;0743457358
0760700435;0451187903
0451184114;0451177096
067942573X;0345404319
078688939X;078686351X
0446607657;0316693324
0385333919;0440235057
0380820293;0060086246
0743467345;0671034065
8817106100;REMOVED
0446613843;0316602051
0679436448;067976397X
0553580930;0374270325
0312980140;0312265840
0385319959;0440222915
0446611778;0446525804
0374525188;0553205757
0349111367;REMOVED
034910901X;REMOVED
0345470621;0345451260
0590136011;REMOVED
0590426931;REMOVED
0590426869;REMOVED
0590426850;REMOVED
0590426796;REMOVED
0375713344;0446391301
0140293450;1573227331
037540256X;080411918X
0743253973;0553280414
0425193942;0515127221
9722100262;REMOVED
0060177225;0061092088
0446344109;0446357200
0452008999;0802130119
0451519841;0451524934
0374266441;0440218535
0553232320;0553205315
0345441036;0375504397
156947012X;0434271918
0590478346;REMOVED
0446608378;0446523372
0385323921;0440225698
0590434985;REMOVED
0345381432;0679408835
0671452177;0671822209
0553122509;REMOVED
0140092323;0140099832
0449207145;0449911683
0671434225;0671004107
0553582127;0553800914
0743456394;0340821191
0553578359;0553107305
068419337X;0671510053
0590034871;REMOVED
0425179648;0670891509
0679420916;044990928X
043942089X;0439404371
0142003735;0871138646
0151004218;0156010593
3548256007;3548257623
354825621X;3548252443
0679986375;1841219266
2070364178;REMOVED
0553240765;0553271105
0671701045;0671701053
0440111498;038533348X
0515121495;0399142614
1565117794;0151008116
8806162160;REMOVED
2070374807;REMOVED
055321019X;0451523067
0312984294;0374129983
0553289691;0553377884
067087311X;0142000205
0451163966;0451143426
0553571338;0440900794
8806150405;REMOVED
0525946829;0451209907
0399138013;051511331X
0553343211;0553346768
0451128370;0451139739
0440802059;REMOVED
0425182843;0399147012
0345463153;0345449347
0385501412;0440237300
0440159008;REMOVED
0893754005;0517618141
0440212561;0440222915
0446363650;REMOVED
0006480764;REMOVED
8432215333;8432216062
039914840X;0515135062
0684801523;185326041X
0736605673;0451526341
1570629706;0553208845
0446520659;0446608262
0140001409;014018869X
043936213X;0590353403
0312020317;0553266055
0739306510;0385510438
0142003816;067003178X
0445046368;REMOVED
0451202627;052594463X
0345469674;0375505148
0688177859;0688171877
0553573136;0553096834
0385302312;0440215625
0385302320;0440217563
0440213886;0440122090
0586068805;REMOVED
0679879242;037582345X
0451203054;0451181468
0743418166;0743418174
0743460529;0743206045
0140386335;0140317937
0671880314;0140067841
038550120X;044023722X
0670860743;0140259112
0879522593;0879520388
0670825379;0963270702
0684835975;0671004565
096533192X;0142001740
0671525425;0671656589
0671703617;0099287927
1566190304;REMOVED
0425179885;0399146504
0553204572;0553266055
0762102543;0446359866
0684810395;0671867156
0399141227;0515120618
0440418321;037582345X
0446609145;0316154067
0141304677;0375814248
0553351672;0553562738
0451523326;0451518845
0140434003;0142437204
2845950470;REMOVED
0316782653;0316782475
0525945814;0452283205
0899193625;0446300101
076790592X;0385484518
0380815591;038079960X
0330319477;REMOVED
1551110652;1551113074
0385315090;0440224772
0385297661;0440207622
0679420649;034538184X
8804483385;REMOVED
0020178506;REMOVED
0020198507;REMOVED
0345441184;0345350499
0590477331;REMOVED
3150000254;REMOVED
0446518581;0446602736
0743225724;0743225325
0451523873;0140449124
0449243141;0068596022
0965063992;REMOVED
0917102258;REMOVED
0385302304;0440222915
0515117234;0399139745
0684195488;0684831546
0553057758;0553377884
0345388526;0345382412
0345402405;0345402219
0345389980;0345389972
059098182X;014032724X
0446603600;044651747X
0451169522;0451153553
0374172897;0312243022
0006551076;REMOVED
0140309586;0140327738
0140554556;REMOVED
0679823859;REMOVED
0385479670;1574551108
0618015841;0142002267
0061031321;0060199563
067943299X;0385318782
044022103X;067940712X
1575666731;0821769278
2253942731;2253942723
2266023209;REMOVED
0345331397;0553294385
0425107469;0425188809
0451162145;0525246606
0440198577;REMOVED
0553262645;0553241729
0142000221;0670894508
0006547834;REMOVED
0345410017;3257208626
B0000A2U93;REMOVED
8401499720;REMOVED
034910171X;REMOVED
0671855670;REMOVED
0786861347;0786889020
0553580191;0553106651
0451172817;0451178599
0374173133;0553205757
0060958014;0060198125
8432210676;REMOVED
0446606251;0446675253
0385317093;0440224829
0439420105;0439064872
5553465214;REMOVED
1591822572;1591822580
1591821533;1591822580
1591820073;1591822580
055309128X;0553574604
0316877719;REMOVED
0747541140;REMOVED
0671887963;0671887971
0553801376;0553582755
0552992062;REMOVED
037582233X;1841219266
0671034057;0743482891
0671027573;0671034065
0345456335;0345295684
0743418204;0743418190
0786863137;0786883219
0060512822;0060175400
0312273045;0312980345
0446603104;044652767X
0446519790;0446607193
0552998524;REMOVED
0747517797;REMOVED
0345349350;0345305779
0812508645;0312850581
0048231398;0345325818
0743203631;074322535X
014130751X;REMOVED
0553278002;0394543971
080411109X;0399141146
0425081818;0425105334
0060652926;0805420460
0786865482;0786884592
0397306938;0874067391
0515136557;0399149422
3442429552;REMOVED
3596144868;REMOVED
051512558X;0609602535
0156005492;0679425608
038533446X;0440235464
0805059555;0449003787
055311767X;REMOVED
0141439556;0140434186
0446608815;0316693286
0375401601;0345422392
0670880728;0330332775
0385472943;0440221471
039308700X;0553574353
0553801341;0553582747
0671039725;0451157443
0345389425;0679433023
0451142934;0451168615
0671042513;0671042505
0446520802;0446605239
0375500995;0345435028
0553227467;0440206154
1551667339;1551662744
0618129014;0618129022
0425092917;0425161617
0451160525;0451210840
068483068X;0446365386
0684813440;0020199090
0684813467;0020198906
0553210211;0553212583
0140276904;REMOVED
B0000633PU;REMOVED
0060739495;0064405176
0553800949;0553582135
0349105715;REMOVED
057114456X;REMOVED
0590101129;0425050750
006050918X;0060509171
8434860058;REMOVED
0140118047;REMOVED
0345418271;0345368754
0345351878;0345291794
0786864400;0786889667
0330353713;REMOVED
081296800X;1400060222
0399146113;0425179613
0446675059;0446521582
0452284937;0452282152
0345460359;0385502532
059042243X;0340568879
033036197X;REMOVED
0385319207;067940712X
0553260618;0553280341
0804900078;0451525221
034540727X;0345348109
0425163407;0399142851
0812542835;0312860951
1560431008;1880089858
0743410181;0671002031
0330294911;REMOVED
3792000261;REMOVED
3257229305;REMOVED
0451160533;0877958920
0142002593;0684853205
0515134481;0441001971
038548237X;0385482388
051513449X;0441304834
0743427149;0743428188
1565113306;0805062971
8483280213;REMOVED
0553212737;0451523067
0330352695;REMOVED
0446613851;0446531480
0812929802;0425174484
0224031457;REMOVED
8711075597;REMOVED
0380720973;0688124402
0671673653;0671793489
0679419454;0345391055
1551668971;1551666650
0399149384;0515136182
0812971043;0375505296
0330349112;REMOVED
0385509510;1400032806
0060179341;0061099686
0316152196;0446607274
0312185863;0312966970
0060933186;0060517794
0552995770;REMOVED
0718143051;0718143043
1865083348;051513306X
0671867091;0671867083
887818635X;REMOVED
0553207083;0553148524
0590487922;REMOVED
0345386108;0553582933
0446525537;0446608955
0670894605;0142001740
0684847450;0684855380
014062080x;014062080X
0380976749;038079960X
0330359916;REMOVED
0440295556;0385472951
0425071588;0441783589
1853260975;068480154X
0743254392;0385425473
0446611921;0446527297
0525945725;0452283442
0006550576;REMOVED
0553344234;0060975547
0670853097;014023313X
0340424354;REMOVED
0671000314;0684802988
087113795X;0802139256
0446522597;0446606324
0375507876;0375759778
1558746226;1558746218
0375502912;0449005615
0375506276;0345449347
0684803968;0671568175
0345440781;0345440773
0451203771;0525945938
0515124893;0399143874
0671528203;0440183057
0515133973;0399148248
0771091591;REMOVED
0446892041;0446356573
0802133347;0140014845
1586212044;0446527297
0385333412;0385333404
0345367758;0345365925
0140430016;0140434186
0590203509;0671517643
0399145052;0425174468
0099740516;0743237196
0553246895;0553380095
0385501560;0385720920
0446525774;0446608890
0446600288;0743405978
1582430152;0671646575
0142001821;0670894494
0452281903;0525945210
0385335431;044023672X
0440205573;0440500729
0440221501;0385311923
0385313012;0440224055
0670894184;0451202341
0399144560;0515126098
0380807947;0380807939
0965036022;REMOVED
0553574574;0385413041
0140434895;0689839618
0452280397;0679433740
0140265988;REMOVED
0751512966;REMOVED
0399139206;0425147746
3453152891;3453171861
034541005X;0394575202
0688163165;0380731851
0804113475;0679441557
0440147956;0451203046
0375415351;0452283868
0380432811;006073941X
0670857459;0140253602
0425165337;0425159671
0312864876;0812564669
8845205118;REMOVED
014007385X;REMOVED
0679437851;0679756973
0446522252;0446676136
1566195268;REMOVED
0399133038;0380705648
0689312024;0449702146
0099272687;REMOVED
0140259708;REMOVED
0439228913;0553212583
0679879269;0375823352
0679879250;0375823468
0747543259;REMOVED
9875021245;156619301X
0151002177;0452277507
0451458222;0451451384
0613072103;0345402871
0618002243;0345339738
0618002235;0345339711
0618002227;0345339703
0001047973;0060809833
0452262933;0451524934
344242528X;REMOVED
0380816792;REMOVED
0440295521;0440221471
0451078721;REMOVED
0375411070;044661193X
0099478110;REMOVED
0099825201;REMOVED
0452276721;0670854891
0452274796;0451209435
0399149155;0425192725
0553107003;REMOVED
1573220167;1573225517
0330358561;REMOVED
0060185252;0060933577
0739405047;REMOVED
0800781562;0800782194
0140052801;156619301X
0064403688;0380564998
0374480095;0590988867
0671528165;0684848597
0140276823;REMOVED
0553269631;0553239112
8420441902;8495501112
0316285269;0316182540
0399148701;0425191184
0399131493;042510107X
0870212850;0425120279
0224030361;REMOVED
0451403959;067084327X
0743234693;0743454146
0613361628;0553380958
0446609404;0316690619
1842230514;REMOVED
0671785214;0679455884
1573221937;1573229326
0441002935;051513452X
0441000916;0515134449
0451523652;055321215X
0140043128;0451143426
0804119538;0345463404
0590957678;REMOVED
0060256656;0060256664
0948524588;REMOVED
0749395389;0385316577
0525484272;0883657635
0330314971;REMOVED
0140050000;REMOVED
0553138758;REMOVED
0553138596;REMOVED
0689804466;0449702146
0060182687;0061094404
0743204832;0743411439
0451204158;0440206146
0345373707;0345396936
0440376408;0451525221
0671014218;0743437640
0316693707;0446601241
1852305606;REMOVED
0374189870;0446674168
0425161633;0399139087
0312242417;0306809893
0006498035;REMOVED
0140132155;REMOVED
0743206061;0743412621
0553802461;0553584383
0671652796;REMOVED
0380807203;0380977737
0425071871;0425104346
1591823633;1591823641
0099769913;REMOVED
3404143434;0671032658
3492107400;REMOVED
3257225350;REMOVED
3150000912;REMOVED
0553050680;0553268449
0571081789;REMOVED
0446357421;0446329894
0399141065;0425155943
0451516060;0762414197
0553106333;0553579606
1566193087;0553212583
0380017822;0380713330
0399147659;0425182908
0446357448;0446341878
0446606294;0316816531
0553574566;0312135653
0061099732;006016249X
3518366823;REMOVED
0385335555;0440236703
0385333005;038533303X
0345428919;0345428900
0441010210;0441008976
0449700895;0449702545
B00007FYKO;REMOVED
B00009APKU;REMOVED
068803196X;0446341878
0553109782;REMOVED
044022330X;0385314744
0670892084;0141001771
1552631885;REMOVED
0451210638;0451183665
0671525751;0671525832
0609602497;0449149676
1888363819;0446610380
0802713432;0140280553
0060158638;0060915544
0553110004;REMOVED
0399146725;0515132136
0345376579;0679411267
0670899771;0142001325
8420430811;8495501198
0571206484;0060199652
0451150716;0451157443
037541178X;0345443284
039914675X;0515134384
881715010X;REMOVED
3453177746;0440224675
0743411323;0743411331
0449908593;0804114277
0380727293;006001203X
0060196300;0061030651
0684850737;REMOVED
0451524780;0425104052
0140258175;REMOVED
0140074317;0140317937
1874061688;REMOVED
0553100017;0553574671
0553100009;0553574663
0684195984;0425154092
0399141464;0425158616
0786866195;0786889837
0425177068;0399145664
0553110845;0553580337
0812815904;REMOVED
000654861X;014010870X
0425194515;0425118703
0553103105;0688002307
0006135986;REMOVED
0553374451;055357339X
067082982X;0451167317
0446523089;0446676489
0060005424;0060278234
0449205878;0394533887
0380729407;0553236202
185863864X;REMOVED
0399135790;0425130711
0312265859;0312983867
8401495261;REMOVED
3548332374;REMOVED
2207304000;2207304019
3442089832;REMOVED
0525945768;0451207645
0553254502;014034893X
0688046606;0451173139
0380563908;0380018179
0241102634;REMOVED
0385502761;0385721358
0440229081;0440416027
0345441788;0609603825
076070015X;1593080743
2253030589;0156628708
1592247938;0812504798
0345359925;0394575202
0449205061;0449200396
880639990X;REMOVED
0374480133;0590988867
0440071240;0440175623
0688147259;0380727501
0963425900;REMOVED
0380004801;REMOVED
2070334430;REMOVED
220730521X;2070426815
2207304892;2207304884
0399127216;0441885691
0553561367;0517593343
0394572726;0449216411
0091882109;0091882087
042518286X;0399146008
0446602698;0446518859
0345311809;0345285859
0802136346;0553279300
0330282565;REMOVED
0553262386;0553205757
0140255893;REMOVED
0553584480;0553802488
0330328085;REMOVED
055320663X;0553050044
0670858692;0451186362
8401461251;REMOVED
0786862572;0786889322
0380708353;0394571770
051512219X;0399142495
0671744186;0671619373
0340733950;0330244078
1568650922;0446802204
0525939857;0451184785
1897580193;REMOVED
0671638688;0380710722
0451190750;0451137965
0515133639;0399148019
0394579259;034536662X
0440217466;0385306032
0380719223;0441006949
0916890015;REMOVED
0590457268;0590424165
0440223202;0385318073
0156029030;0671742493
0575072741;REMOVED
0590431978;REMOVED
0399149848;0515137111
0425119920;0425181111
0743431030;0786866276
8401422825;3257208626
2070567842;REMOVED
0446600466;0671639218
0446364800;0446513067
0679450408;0345404769
0613028155;0140317937
1566197589;REMOVED
014143967X;0140433988
0451150244;0451162072
0380973634;0380789019
0590402129;REMOVED
0141301066;014034294X
1551660237;0373482957
059043893X;REMOVED
0590440675;REMOVED
0808520695;038533348X
0446329142;0446341878
0380977281;0060934719
014100018X;0552998486
0345357019;0099623404
0575061596;1573227331
0553263633;0380973839
0553280325;0553236202
067102406X;0671024051
0140230165;0525934960
0385470819;0440211727
2253001457;REMOVED
2253000868;REMOVED
0752804510;REMOVED
0618260307;0618002219
0553247921;0679721037
0440215234;0385319851
0385491085;0449213765
0670869902;0451197410
0553255851;0553274295
0064401847;006073941X
0340188022;REMOVED
0553569074;0679427430
0440514428;038531258X
0553211013;0140449124
0440224837;0385319568
2266120158;2266051326
2070375161;REMOVED
2264028815;0679736646
0679416781;0679745203
0606006133;0451520793
1400075637;1841952974
0531301427;0140360468
0743228480;0743228022
0965881261;REMOVED
1573229865;157322202X
009179319X;0679449787
074345300X;0743233468
0399133143;0451156609
1558007725;0553205803
0385325126;0440417449
0684855631;0671026011
0618129030;0345339703
0849938635;0849944767
0553107232;0553578308
0446527130;0446611808
0515118230;0425171272
0743467191;0671728571
0345409663;0345389417
0679724494;0394744756
0451191935;0451147367
0380713810;0749396547
0140286780;0140167153
0060997028;0571197779
0451525914;0553214543
185788292X;0933662599
0743455967;0684853523
0679430946;0385479565
0060191988;0061073628
0441004997;0441328091
0698119509;0441008658
0553379534;0553081209
0812545990;0312860374
0671524313;0671021761
0385294638;0440193613
0345351738;0345358791
0451149513;0670813028
097089726X;097089726x
0446912689;REMOVED
0345296052;0395272238
0345296044;0618002219
0451161343;0451137965
0812500067;0312872836
044018178X;0812532554
0061099643;0060179228
0345460693;0553057960
0446613681;0446527386
089529768X;0895296950
0345257448;0345291794
0345256662;0345305779
0425056023;0425064921
0553113925;REMOVED
0425055272;0425061957
0425047253;0425063879
0671806769;0671447807
0812545508;0312890249
0553227041;REMOVED
0425039048;0425104273
0671468200;0671729462
038072880X;0688149626
0064408655;0439386012
0671746065;0671461494
0786013567;0821739514
880781076X;0553280589
8807804506;REMOVED
0141301058;0590060198
0374109990;0440216540
0440223016;0679445625
0745926290;014025448X
0874869870;0874869226
0812505123;0590425919
0140094385;0670804541
0395070902;0553271105
0440498058;0440998050
0141311908;0375815260
0140430113;0142437204
0842345523;0842345566
0671729896;0671623931
0452282195;0375411550
0060924179;0060168536
1566190932;055321215X
0451521323;0671722816
0449227545;0609603086
0689821867;0689849176
0553207628;REMOVED
0205126987;0205152074
0394568354;0449216527
0553109405;REMOVED
0425132153;0441008615
0394832205;0679833692
0679886370;1841219266
0399145362;0515130044
0060157992;0345362721
0385320175;0440225299
0064406326;0060269928
0316415022;0316089737
0553800973;0553582143
0345388968;0345370805
0060277491;0064472531
0399142606;0425164829
0060090367;0380796090
0517162695;0385260431
0758204175;073943053X
0767905199;0767905202
0385492243;0385492235
0671737899;0671637185
0345433319;0449006530
0399145079;0425174344
0312203594;0312283784
0971700915;0061090565
0345404440;0345437829
0140282033;0552998486
0767906993;037550298X
0385312512;0385308078
0060294698;0064472779
0425113884;0399133186
0345356365;0808572407
0786865504;0786884622
078688360X;0786863218
0312147015;0312135866
0767906543;0385501005
0380796104;0060090375
0399141855;0330352253
0380975068;0380792745
0671794507;0671794493
0679867406;REMOVED
0805002138;0312148267
1587172046;0312148267
0440409411;0823405796
0590439448;0531058379
0590023888;REMOVED
0451160916;0743424425
1551665077;1551660202
0446607207;0688162827
0141312424;0140348107
0553102354;0553575104
1878448900;1565115430
0807281859;0375823468
8401422345;3257208626
8401491029;0451153553
8432070157;8432068020
8427019696;REMOVED
0553573861;0871131811
0345386574;0679422188
0156907399;0156907380
0345389247;0345432479
0380728826;0393038548
096521365X;REMOVED
0380732149;0399142991
0385314256;0385314280
0743411358;074341134X
1857027051;REMOVED
1857988027;REMOVED
0753813823;REMOVED
0140064702;0571197779
0553203487;0316769495
0553123432;REMOVED
0345292340;3257208626
080410378X;0312243111
0679442405;0385496095
155166531X;0373482957
8817150134;REMOVED
8807840014;REMOVED
0811202925;0553208845
0671008803;0671008781
0887330045;REMOVED
3518100734;REMOVED
3426080648;REMOVED
0140445285;0140449132
0060171928;0060926317
0345409876;0345396812
093158079X;0931580633
0449200248;044920846X
0786808012;0786817070
0385285019;0440204887
0385484011;0385484003
0061014788;0380805421
0552142506;REMOVED
0316153915;044661162X
0440236665;0385335377
0812551486;0312890532
0451525884;055321215X
0385491107;0449213773
0385720955;0385475721
0571168639;REMOVED
0758203888;0758203896
006109868X;0060168013
1889853038;0553236679
0860681297;0446314986
0385319002;0385319037
0060294655;0064472795
0316777722;0316776963
0099143712;0070212570
1550541129;0312171838
0671679430;0140272100
0140283641;REMOVED
0140277439;REMOVED
0679724362;0394574567
0345417941;0553258001
0525941916;0670854891
1573229717;1573222127
0679454756;0679777423
0061094781;REMOVED
0440223253;0385314019
0670826472;0140131566
0804118906;0399141294
1573220825;0425167720
0385176228;0140317937
0440404193;0440904196
0061097667;0060175532
0140177388;0553234161
0671563076;0671522647
0060964073;0060910992
0060256745;0060256737
0786885416;0786864516
0590406205;REMOVED
0425095517;0425183238
0590981811;0140348107
0064403319;0064406601
0201626705;0679770151
0671204971;0684801051
0140328696;0375815260
0156028778;015100692X
0590630954;REMOVED
0553150979;0375815260
0813511690;0813511704
0671521012;0671521004
1890132322;0930031067
0140274782;0670878073
081120068X;0553208845
0312954468;0330331973
0965574911;REMOVED
0060167688;0061091790
0425103285;0425183238
0445205377;0446606723
0553106341;0553582526
0345404785;0679450432
0399139710;0425151867
0553264680;0553280368
0451191951;0140252800
0399145850;0425178773
0805208488;0099428644
0517702134;0440224039
0553581481;0385488947
0399146245;0451203593
0671898752;0671898779
0449223132;0449911632
0446611085;0316969443
1841954608;0571216420
0060503467;0060503475
039592720x;039592720X
0380978415;006056668X
0553251481;0553268449
014003613X;REMOVED
0718146298;REMOVED
0880299193;REMOVED
0312042779;044922046X
0451165624;0140042598
1850514496;REMOVED
0671881884;0380725231
0066211239;0060936150
0553109243;0553581651
0312282621;0312983786
0060958111;0060198508
0679441239;067976268X
0671682849;0671525433
0671656570;0671729462
0060090383;0380817683
0871138190;080213825X
055327824X;0142000671
0553107240;0553578316
0517574985;0425143945
0399142401;0515122734
0670032379;0142001740
0670878847;0451196856
0380766558;0380807866
0380718839;0743410653
0804117683;0449910237
1573220485;1573226521
0385491034;0553569058
0446677388;0446601241
0670839809;0671537458
044990542X;0151879834
0785799524;042511774X
0316199648;0316198951
1573223425;1573222267
0688168248;0688177867
0151489262;0553377868
015670160X;1853262390
0312198647;0312421117
0345346491;0345419073
0330294008;REMOVED
0399145672;0425184129
0385334931;038533494X
0345419081;0345366239
0679432477;0375726403
034539044X;0679426612
0140131604;0451821971
0517595753;0449912302
068480123X;0553212486
0767902025;0767902041
0060198133;0060958022
0330305336;REMOVED
0449910571;0679441557
0671242954;0684801051
0553148923;REMOVED
0375400656;0375700668
0671881604;0671015648
0446677922;0892967048
0312192037;0312951914
0753804549;REMOVED
0786880112;0786889705
0060509406;0060509392
0451211200;0451160312
0312284683;0312983824
0060086386;006621016X
0767903854;0767903862
0345367081;0394578074
0590435124;0590251597
0590433466;0812505018
0425129551;0399135847
055310666X;0553580221
0553801430;0553582763
0066212995;0061032212
0671014188;0671014196
0345447832;0345447840
1551669730;1551662604
0892967269;0446609781
0670844527;0451177096
0380731479;067944999X
0312253079;031230238X
0553582941;0679425268
0446519537;0446603503
0345396065;0345404114
0671743066;0671743074
0679419853;0312952716
067942525X;0345384369
0525939571;0451184149
0446531510;0446613886
0425140032;0399137734
0062509586;0062509594
0440234859;0385333757
0553024248;034539092X
0590672975;REMOVED
0842359249;084236661X
0064462080;0060275855
0689831285;0689849176
0553272500;0060594330
0312134517;0312958129
0553126121;REMOVED
0590341502;0152099905
0517597985;0517883864
0449239047;0449211827
0380008971;REMOVED
0394724550;0394557433
0061043494;0060808241
0345300785;0345338715
0881763004;REMOVED
0345377443;0345396812
0394416457;0671042742
0590447742;0312148267
0380709546;0440472091
0312203039;0312971346
0440840953;0590988867
0553153277;055321313X
0802115160;0671880187
0312201656;031231616X
0451519167;055321215X
0671456865;0671604082
0671620193;0061002860
0451523555;0439099404
0449221776;038542406X
0140280464;0670879045
0671722751;0451521358
0553111507;REMOVED
0879237848;0874067391
0553213202;0425046117
0385474903;0385479689
0440447682;0671517643
0449223450;067943612X
0345428307;0345428293
0345336003;0345307615
0380709244;0440760755
0553234595;0553141279
0553275224;0440206154
0440772109;0380709600
0399139141;0425146413
0345313216;0345272846
0345327861;0345285980
0609601008;0345430514
0553228412;0553255282
0804111146;0679419616
0712674527;REMOVED
034537536X;0345375351
0345386132;0679429883
0805237739;0380603926
0395083567;039575514X
0425171094;0060391022
0688032079;0553148524
0385301499;0440211263
0385336764;0385315279
0060185147;0061031410
0345409043;0345409051
0385335121;0440235596
1575667614;0821772341
0718143515;REMOVED
0773752102;REMOVED
0553204343;0553268120
0201112159;REMOVED
0670220264;0451139739
0671230875;0671442260
0671492055;0671542141
0671218581;0671447807
042507272X;0441294677
042507160X;0441172660
0553281798;0553199609
0141802812;0670891576
069452350X;0312422601
0446691798;0446531332
0449006581;0375503315
0739302213;0385508042
0446403830;0892965258
9507682074;847166464X
0449214281;0452279070
0887307876;0887308589
1556521952;1556522460
1567403263;055358099X
0452281636;014027927X
0440206529;0385297548
0312978383;0312244266
0451175123;0451191153
0140157379;0140140352
0340165634;0385008910
0064473511;0394820304
0060912529;0060152583
0679445102;0679445625
0380017997;0449213765
0440222877;0553478206
0553581023;055311073X
0671786539;0671786601
0671034421;0671027581
0385315236;0440222656
0446520950;0446604844
014005829X;REMOVED
0671502336;0684833395
0743225422;0743225406
1573221767;1573229105
0374199698;0312422156
0375828192;0385606990
1573220876;1573227331
044041833X;0375823468
0380793334;0380975351
0399146695;0515131741
0425047075;042518109X
0345384377;0679425268
0679428887;0515127485
0446522996;0446609951
0517701766;0449225151
087795223X;0451163540
0140180206;REMOVED
2040160434;REMOVED
2253006203;REMOVED
2080701819;REMOVED
2070383652;REMOVED
0375700528;0060975210
0330305735;REMOVED
2702408648;REMOVED
225302001X;REMOVED
0340551194;REMOVED
037540600X;0804119430
0679451501;0449912558
0151002835;0156006391
0385491832;0375724834
0670896764;0451204948
1582972540;089879658X
156389629X;1563895730
1563890119;1563892278
0930289595;1563892251
156389016X;156389226X
1563890410;1563890356
0006511767;REMOVED
0440204399;0684833395
0963094432;0963094424
0553377892;0385491077
0553377922;0446314986
0811819167;0156006340
0312203241;031227999X
0312186886;055299619x
0449911535;0449212602
0684801418;0553579312
0449001180;0804107025
0060569662;006097673X
0553349481;0345273303
0879518340;1585670227
0375407561;0375707425
0451208188;0399148515
0385491026;0553282476
0451513355;0140433988
0449208109;0030554381
0451407229;0452281296
0140143491;0312420285
0345423607;0345423615
0446364495;044651652X
0553150510;REMOVED
078689007X;0440212626
0064441555;006020186X
1853261246;0816707979
0525444467;0440464854
2266070592;REMOVED
2266070606;REMOVED
2253005266;REMOVED
2253028274;REMOVED
2253046701;REMOVED
2070370003;REMOVED
2253056383;REMOVED
2253047848;REMOVED
2070373630;2070393577
2020067447;REMOVED
2070372162;REMOVED
2738102158;2738107915
2715219512;REMOVED
2253012556;REMOVED
2070377865;REMOVED
2842630254;2290311782
2070408582;REMOVED
2020062143;REMOVED
2070259811;2070378233
0440237009;0385333064
0440217547;0385306024
067103975X;0451168089
0670868361;0451188462
0452262143;0451163524
0451167805;0451132343
0451132378;0451162072
0399143823;0425168298
0425126064;039913543X
0440986524;0140389660
0451168623;0451178033
346202731X;REMOVED
3506500104;REMOVED
0553293354;0345308999
0672604043;REMOVED
8401421101;REMOVED
0762100699;REMOVED
0060502304;034539092X
0553089226;034546074X
0670829390;0140148450
0345335708;0345300807
0140053166;REMOVED
0440475821;0590687301
042512164X;042512164x
0312927789;031205811X
0441003745;0515134465
0385306040;0440223237
0385316879;0440237025
0743457269;0671705091
0446527041;0446613053
0385334710;0440235774
0399146741;051513290X
0440211891;0385299087
0061053716;0060179228
0671027972;0684859262
0385260075;0553282476
0517554399;0345391837
0385425074;0517576988
0689704674;0689711522
0020412401;0671517643
067152609X;0671526103
0441518095;0425043231
0374386137;0440998050
0553582852;0553801589
0380761483;0380898179
0671689738;0671689746
1568655878;038076654X
038075911X;0380812061
0060185708;0061031534
0394551540;0449217264
0688065716;0446356832
0515070742;0312966059
0515077356;0312968884
0515061662;0515085928
0515120278;0399140751
0515074438;0312971958
0330288393;REMOVED
0704339986;REMOVED
0385415109;0553291165
0670032069;0142003727
0446607177;0446523364
0553573926;0553100335
0553576089;0553092650
0446609617;0446527017
0330331698;REMOVED
0739408461;REMOVED
0451210875;0451194861
0451210867;0451173317
0451210859;0451163524
1591161258;1591161932
1591160944;1591161932
1591160677;1591161932
1591160669;1591161932
0873513193;0445085614
0449904067;0345419995
0380698692;0345431901
0380703149;0688065317
0440213355;038530000X
0385319444;0385319347
0446607401;0446523151
0395633206;039571091X
038549727X;0385497288
0380729865;0688065317
0312981651;0425087700
0345362861;0345331605
0020868804;0684823802
0553293362;0345309014
0671701592;0671461494
0140361227;0525444440
0396073735;0553256785
0671552228;0671704664
0553269291;0553052845
0671823337;REMOVED
0380011077;REMOVED
0385485212;0553478206
0394564324;0449216411
0345417739;0868246778
0884111431;0449244679
0446519782;0446604232
0064401871;0874067391
039300158X;0393310396
0446671223;1570422826
0805056211;0451409132
0385311044;0440216818
0425064506;0553214225
0449214192;039447970X
0451133129;0452254345
0684858266;REMOVED
0553199552;0553199609
0449210928;0394541545
0446350982;0446359866
0449214206;0449244741
0449237613;0449213358
0385333781;0440170370
0553232894;0385491077
0449203158;0449211584
0802131379;0747549923
0375507914;0679732764
0394565614;0449217493
067087485X;0140265686
0380812002;0553354779
0553095870;055357258X
0449149900;0679401385
0380975343;0380762609
0553581937;0553801449
0449202917;0679756450
0671553038;0671553046
0060175184;0061092037
0812576403;0312871996
0452011876;0451191145
0449221113;067168079X
0394559584;0345379365
0385245793;0061008095
0440226406;0385316895
0553572512;0553092626
0684803860;0671497596
0425100057;0399131256
0525447091;REMOVED
0886778441;0886777771
0316769029;0316769495
0785728473;0449213358
0802730191;0802754309
0449909174;031209261X
1860462588;186046310X
0385315147;0440218535
067176960X;0671413678
0380767848;0451206428
0345353676;0451450523
0345379845;0345384911
0441005837;0688154395
0375806776;0823405796
0446341754;0440160677
0446341851;0446802204
0517575019;0553293761
0385417926;0449907155
0679415793;0380723409
0395339707;0446322563
0064400964;0060244151
0893756113;055321215X
1576731863;1576738167
0451626109;0060652934
0786882417;0786862270
089107919X;061312975X
076240759X;REMOVED
0688151981;0688169678
1573226254;0399141960
0671668781;0671526022
0151731527;0671789422
039454272X;0070037485
0571105653;0151807027
0613073304;0553279300
0936703008;REMOVED
0440800544;0440998050
0553100777;REMOVED
006080713X;0060970421
0553225227;0812500768
0451165896;0452254345
0553116606;0553131605
0553122061;REMOVED
0446824631;REMOVED
0449205037;0449211827
0345423631;0345423623
0671439960;0671822209
0399236015;044100914X
0449219089;0449906817
0440215285;0345327772
0451138945;REMOVED
0440613965;0440106443
0345386302;0345386299
055320338X;0553258958
0553201344;0553247727
0380558890;0812521463
0553246178;REMOVED
0553087258;REMOVED
0446360074;0446356611
0446914770;REMOVED
0451155009;0030632366
0553147021;REMOVED
0553133969;REMOVED
094202401X;0942024001
0553029754;REMOVED
0446302686;0446322490
0340268778;REMOVED
0704326485;REMOVED
0670260770;0451155750
0425161021;0449137465
0060008873;0060008865
0517542099;0671461494
067174139x;067174139X
0451192028;0451203046
0394500792;0449211584
1585671827;0380005166
0671667033;0671641778
0671874950;0671416367
0553121456;REMOVED
0312857322;0812518055
039455695X;0449211584
0425175413;0399144897
0451208641;0451192036
0879972734;REMOVED
0553130986;0553241575
0380008424;0671221396
0553282204;0553380400
0689806590;0590313185
0425188221;0425097269
0451400372;0399131280
0380703122;0688066631
0385261853;0553290797
0312890524;0812551478
0807204684;0553274295
0786808551;0786817089
0440472105;0380709600
055327953X;0061008095
0590252194;REMOVED
0440472431;038070952X
0345336038;0345273575
155874715X;1558747141
0027701301;014032724X
0439078415;REMOVED
0140328742;0141304707
0590435418;REMOVED
1591160766;1591160774
0375507779;0425105334
0670835382;0451170385
0883650215;REMOVED
0881037214;0451155750
0451157753;0451162072
0679438335;0345389417
0375416218;0679454489
0446676098;0446605239
0451169514;0670813028
3423110066;REMOVED
3423011505;REMOVED
3499100355;REMOVED
3492233724;3492256341
3426001454;REMOVED
3630611087;REMOVED
3518368001;REMOVED
0684843137;0684874350
074347418X;0671003364
0671739786;0671454056
0374115370;0553275976
8408023942;8408015125
8401490979;REMOVED
0749316411;0671019635
0684853299;0671024183
8432215228;8432215007
0679431136;0345378490
2266061283;0066211697
0380727366;0380715899
9504906915;8408036424
0785787828;0671004107
0812543122;0451187903
0727855468;0380752999
006051406X;006051406x
067187036X;3257208626
0140434062;014143984X
847888646X;8478886451
8478886559;8478885196
0061020680;0451159233
0151009376;0156027399
0399136460;0515109509
0613212320;0156007754
0140620206;REMOVED
0312971125;0312198493
0340370238;REMOVED
0451192001;0451197410
0446530085;0446690295
1573222038;1573229725
0345448987;0345448995
0060915455;0553233890
051510566X;0399135545
0770427758;044022425X
038533558X;0440236738
0849912962;0913367346
039913381X;0515099546
0842329110;0842329129
0764222392;0764222120
0764222244;0764222112
0671025589;0385319215
0515120898;0425176487
0380813394;0060508876
0743428595;0743428668
0440224861;0385319606
0451203933;0871137380
1551668564;0385419457
0061013250;0684831708
0440240751;0385336314
0399133682;0425116417
044023669X;0385335407
0743456335;0743456351
0060198346;0446610178
0688084907;0446364762
1840385367;REMOVED
0385299109;0440214114
038531292X;0440221315
0446516554;0446600342
0399139060;0515115630
0517593335;0553561359
0385338457;0440136482
0140292683;0140293248
0446329436;0446322490
0553576038;0553802542
0449005836;0345433165
0515103969;0671446886
0451126661;0451155750
051511992X;0399141200
006018311X;0061099813
0609607235;0609810030
0345425308;0679433023
006272004X;REMOVED
0385316348;0440224780
006092991X;0060192704
0805019359;0449221482
0671722859;0671727680
0141439572;1593080255
B000069F44;REMOVED
0446679224;0679438890
8408010468;0425140946
B00005NCS7;REMOVED
0312865074;0312865031
0785765182;0451454243
0060505257;0066210844
0451526384;0553211374
0140434259;0451187903
0670873004;REMOVED
0821728598;0688042872
0451516524;0451525221
0553107437;0553580906
0679443746;0679763309
0553107445;0553580280
0805068953;0060972920
0380977338;0380804883
0743434013;0743434021
0312283423;0312983212
0440053277;0345439724
0399146407;039914563X
0446611379;0892967307
0140126759;REMOVED
0006140823;REMOVED
0860683036;REMOVED
0553581295;0553111531
059043389X;0835902242
8483140004;843220708X
1594130051;0345272579
1843650371;0451521897
8475250025;8495407744
8423911748;REMOVED
8401427746;8427908040
8423309150;REMOVED
0553244132;0553275860
1400031001;0241141788
0140234217;REMOVED
0330372548;REMOVED
068486052X;0671029088
1842230441;0060557257
0679411674;1400076218
0670031925;034082607X
0316734837;0316678104
0618129111;0345339738
0671737643;0671776096
0151191530;0671617028
0394572343;042511774X
0553253565;0312050631
0446603589;0446519960
1568652860;0425155404
0451193881;0743424425
0517536064;0553256092
0679441220;0679762671
0517582287;0553561111
0345388771;067940211X
006018650X;0061012289
0679448284;0679769447
0394513924;0345378490
0679435204;0385480016
0440235421;0385334370
0670772895;0140243518
0394525299;039457513X
0446516694;0446600709
0002242591;REMOVED
0340530421;REMOVED
0525936343;0451180224
0684841177;0671011367
0060160705;0060916559
157036057X;0312956789
0385237081;0440208513
0553105000;REMOVED
0060977264;0062513982
0449206475;0449912108
0441900674;0399124721
0441813046;0425049981
0670879428;0451185277
1570424810;0316777730
0440236819;0385335520
0451158288;0394497848
0451183940;0451124340
0553238132;0553052845
0449205193;0688025072
0061002747;067170463X
038000917X;0380778556
051513581X;051513581x
0140714839;0671722840
0330338838;REMOVED
1586210300;0349111863
0812505069;0451526562
0440154472;0440154731
0671759205;0671759213
0451197747;0451186923
044636214X;0446356611
0553526901;0440234689
0451182480;0525938850
0252006860;0060916508
0671643703;0671725955
1578155096;0449909557
0752843338;0553582526
0140143882;REMOVED
0525938028;0451183665
0061091480;0308102282
2253030023;REMOVED
0553292714;0394569962
0446310050;0446348287
0787100072;0446602086
0679460381;0679433023
0140865071;0451180062
1570428581;0316690619
0743526279;0671028383
0694515450;0385314388
0553471805;0385306032
0553527525;0440237025
1570426538;0316890642
0694515515;006109174X
0871886693;0446346829
0671887939;0671867083
0394550455;0345284364
0553472321;0440411459
0679413170;0449221873
0060095628;0060185287
1931056323;0399146431
0553527126;0553278029
0449911012;0345422317
0060186526;0061095540
0060830956;0060809833
038533348x;038533348X
0142000744;0451143426
0571167772;REMOVED
0451519124;0835902242
1573221090;1573227749
0316154075;0446667900
0849942713;0849911796
0812932188;081293217X
0671014919;0684832291
0316037621;0316037443
0316058211;0140113428
006008216X;0385301413
006100345X;0380700247
0374525838;0374153248
8401496071;REMOVED
8423935825;REMOVED
8440627203;8495501015
8440637969;8466300554
8420613487;REMOVED
8440643586;8440616368
0440225590;8466301526
0451161394;0452280621
0671790102;REMOVED
0440209803;0385301413
0553341820;0553345745
0446355453;0446802204
1573221643;1573228745
0441715923;0425106403
0451207521;0525946284
0345367650;0394578198
840803894X;REMOVED
9725681398;REMOVED
1566190940;REMOVED
1566194431;REMOVED
0880295198;REMOVED
0451093380;0451155750
0425035182;0804900973
0061098299;0060174714
0802136303;0449219232
1568654243;0671004107
067144977X;0140067841
0451183347;0670852147
0312864256;081257558X
0760713855;REMOVED
0399148787;051513595X
0446527033;0446609943
0312246560;0312975856
0553238973;0553227750
0373280254;REMOVED
0394410459;0345260317
0374201250;0060973277
1566193028;0451518845
0590460307;0553212583
0006550924;REMOVED
8742977584;REMOVED
8807811189;REMOVED
0446353728;0684177730
080410753x;0399135782
0440114764;0671741195
0345272013;0345350502
0439263271;0439435242
972210277X;REMOVED
0375414819;140003065X
3499100045;REMOVED
0375724672;0375410848
0805000585;0553347233
0452279488;0451188470
0679000437;REMOVED
0060182563;0061096644
0452255791;0030632366
0689113161;044630798X
0394178009;0517122707
0316152447;0312963297
0737399368;REMOVED
039923490X;0441007732
0306807971;0306811596
0380711141;0380701766
1566193672;REMOVED
0590996835;014034294X
1552801691;REMOVED
0393008533;0393309282
0939149354;1569471169
0679430717;0449911632
0671027352;0671027360
0385470223;038547167X
0375417230;0375501959
0590404628;0590428837
0393050424;006000438X
0684825910;0451520793
0375421440;0385721420
0453008097;0451174291
0425178765;039914613X
0679432019;0449910237
0140258132;014018869X
0375402810;0679452354
031208188X;0312950586
0060269855;0064406865
0876859260;8433914871
0553801821;0553582801
0670873926;0140266771
067978120X;0679455116
0552998931;0552998486
0140449302;014044629X
0804112754;0451206460
0785799532;0380709902
069452008X;0060928336
0446364835;0812509145
0385292244;0440178002
0440213320;0345319540
0671891677;0671891650
B00007MAM9;REMOVED
B00006CRTE;REMOVED
9500711427;0140262474
006018552X;0061032077
849540768X;8471664933
8434853264;REMOVED
2020061864;REMOVED
2010151534;REMOVED
2070513661;REMOVED
2070368971;0140042407
2253005495;2290333697
2253003743;REMOVED
225300314X;REMOVED
2070331415;REMOVED
0060273224;0064471837
2038714509;1557832307
2070385639;REMOVED
2277260029;0380789019
274273807X;2742743693
156619024X;REMOVED
342311892X;REMOVED
031205436x;031205436X
0330328387;REMOVED
0451139755;0451162072
0142500135;0670892475
0140096825;REMOVED
0451191722;0525942688
0060391782;0060987324
057116272X;REMOVED
0451522222;0553210327
0439087597;0439087589
0451528409;0451628454
0671019074;0671617028
0446611638;0316154601
1559949856;0061093890
0553528920;0440237300
0694522597;0060175532
8878240192;REMOVED
0385315066;0440224594
0002557029;REMOVED
0684816334;REMOVED
0140430229;0141439491
0749930527;REMOVED
0451201345;0525944834
0140279687;014100374X
0340733756;0330262726
0553127748;REMOVED
0330320912;REMOVED
0142004618;075530540X
0553574558;0312119070
0515134651;0449217205
0440184886;0446358584
0698116895;0440986311
0440194784;0385333501
0312857330;0812522133
0671225936;0671824813
067945439X;0679776591
0706413180;034528223X
0893753467;0590425919
0671867318;0671521101
0345379667;0345359321
0330330276;REMOVED
0006547613;REMOVED
033033588X;REMOVED
0785717544;0451452755
0812507738;0380731207
0694524794;0061098035
1586210629;0446530522
0452284457;0525946578
0743448944;0743229878
0399145990;0425179672
0671045741;0743430999
0842332294;084233226X
0061044741;0061092533
1573220221;1573225789
0670910627;REMOVED
0684819902;0671015850
0345440633;0449910261
0060177349;0061092355
0440139244;0451410025
0385721676;0385503857
0871135922;0802134475
0141313617;REMOVED
0571139493;REMOVED
0143300598;REMOVED
0207959641;REMOVED
0893818615;REMOVED
193212800X;1588720020
3404148401;3404139968
3499138050;REMOVED
0671447238;0671705997
0671737198;0883659948
0671042149;0671024248
0553802186;0553583956
0345253434;0345272587
0553010603;REMOVED
0345433297;0449005909
8440656955;0452280621
0553099485;0553571842
0394700023;0679720200
0552124192;REMOVED
1844131599;0385510438
0140180885;REMOVED
0749320346;044651652X
038070918X;044040665X
0590440764;REMOVED
0440416426;0060594330
0590434519;REMOVED
0440986591;0440486599
0515128821;0399144927
0452283035;158567074X
0399137467;0345401123
0553565370;0553094653
0441002536;0441006345
0440225272;0385319800
0804105278;0394569644
0872169294;REMOVED
0812415647;0553256653
0060808144;0062740067
0448058081;REMOVED
0553561693;0385491093
0816704716;0486252086
0345291328;0140065172
0451402502;0451204301
0553584014;0553802240
1884910033;1884910394
0140171002;0553212583
006440188X;0812505018
0061040282;0062500260
3150000750;REMOVED
0553104225;REMOVED
0451117298;0670451932
0446860360;REMOVED
0525936041;0451179803
0553062247;0440224071
0679450424;0345404777
0394563727;074750184X
0399141391;0425157164
0399145788;0515129224
0385299311;0440213991
0312010400;0312910517
0671618814;0671674366
0395325064;0440161061
0345411447;0345395069
0515119652;0425176169
093798650X;0451210840
0671446622;067146714X
0451135563;0030577861
068480753X;0671001167
080075977X;0440504716
0553256742;0553050931
0892963697;0445407808
0385182635;0449203433
0316171409;0449146138
0684852691;0684852705
0449200531;0449213145
